Names and Political Affiliation Patterns of Dutch Politicians
…
Show code

library(crosstalk)
#library(echarts4r)
library(magrittr)
#library(dplyr)
library(plotly)
# Create a SharedData object for crosstalk
shared_df <- SharedData$new(d_count)
d_count

# A tibble: 495 × 4
   first_name Political_Leaning     n n_signed
   <chr>      <chr>             <int>    <dbl>
 1 Jan        Right                14       14
 2 Pieter     Right                 7        7
 3 Henk       Right                 6        6
 4 Chris      Right                 5        5
 5 Mark       Right                 5        5
 6 Peter      Right                 5        5
 7 André      Right                 4        4
 8 Bart       Right                 4        4
 9 Erik       Right                 4        4
10 Jan        Left                  4       -4
# ℹ 485 more rows
…
